…
    ## Warning: 36 parsing failures.
    ##  row                   col           expected actual       file
    ## 2502 SPEC_LAST_DATE_093C   1/0/T/F/TRUE/FALSE   1017 'MN20.txt'
    ## 3571 SPEC_LAST_DATE_093C   1/0/T/F/TRUE/FALSE   0817 'MN20.txt'
    ## 3572 OTHER_STATE_CODE_098A a double             CAN  'MN20.txt'
    ## 4969 SPEC_LAST_DATE_093C   1/0/T/F/TRUE/FALSE   0817 'MN20.txt'
    ## 5527 SPEC_LAST_DATE_093C   1/0/T/F/TRUE/FALSE   1017 'MN20.txt'
    ## .... ..................... .................. ...... ..........
    ## See problems(...) for more details.

``` r
bridge
```

    ## # A tibble: 13,471 x 123
    ##    STATE_CODE_001 STRUCTURE_NUMBE~ RECORD_TYPE_005A ROUTE_PREFIX_00~
    ##             <dbl> <chr>                       <dbl>            <dbl>
    ##  1             27 000000000006389                 1                4
    ##  2             27 000000000006390                 1                4
    ##  3             27 000000000006391                 1                4
    ##  4             27 000000000007435                 1                4
    ##  5             27 00000000000F115                 1                6
    ##  6             27 00000000000F116                 1                6
    ##  7             27 00000000000F124                 1                6
    ##  8             27 00000000000F125                 1                6
    ##  9             27 00000000000F126                 1                6
    ## 10             27 00000000000F127                 1                6
    ## # ... with 13,461 more rows, and 119 more variables: SERVICE_LEVEL_005C <dbl>,
    ## #   ROUTE_NUMBER_005D <chr>, DIRECTION_005E <dbl>, HIGHWAY_DISTRICT_002 <chr>,
    ## #   COUNTY_CODE_003 <chr>, PLACE_CODE_004 <chr>, FEATURES_DESC_006A <chr>,
    ## #   CRITICAL_FACILITY_006B <lgl>, FACILITY_CARRIED_007 <chr>,
    ## #   LOCATION_009 <chr>, MIN_VERT_CLR_010 <dbl>, KILOPOINT_011 <dbl>,
    ## #   BASE_HWY_NETWORK_012 <dbl>, LRS_INV_ROUTE_013A <chr>,
    ## #   SUBROUTE_NO_013B <dbl>, LAT_016 <chr>, LONG_017 <chr>,
    ## #   DETOUR_KILOS_019 <dbl>, TOLL_020 <dbl>, MAINTENANCE_021 <chr>,
    ## #   OWNER_022 <chr>, FUNCTIONAL_CLASS_026 <chr>, YEAR_BUILT_027 <dbl>,
…
    ## Warning: 175 parsing failures.
    ## row col  expected    actual                              file
    ##   3  -- 1 columns 2 columns 'https://guide.wisc.edu/faculty/'
    ##   6  -- 1 columns 5 columns 'https://guide.wisc.edu/faculty/'
    ##   7  -- 1 columns 3 columns 'https://guide.wisc.edu/faculty/'
    ##   8  -- 1 columns 2 columns 'https://guide.wisc.edu/faculty/'
    ##   9  -- 1 columns 2 columns 'https://guide.wisc.edu/faculty/'
    ## ... ... ......... ......... .................................
    ## See problems(...) for more details.

``` r
faculty
```

    ## # A tibble: 518 x 1
    ##    `<!doctype html>`                                                            
    ##    <chr>                                                                        
    ##  1 "<html class=\"no-js\" xml:lang=\"en\" lang=\"en\" dir=\"ltr\">"             
    ##  2 "<head>"                                                                     
    ##  3 "<script>(function(H){H.className=H.className.replace(/\\bno-js\\b/"         
    ##  4 "<title>Faculty &lt; University of Wisconsin-Madison</title>"                
    ##  5 "<!-- Google Tag Manager -->"                                                
    ##  6 "<script>(function(w"                                                        
    ##  7 "new Date().getTime()"                                                       
    ##  8 "j=d.createElement(s)"                                                       
    ##  9 "'https://www.googletagmanager.com/gtm.js?id='+i+dl;f.parentNode.insertBefor~
    ## 10 "})(window"                                                                  
    ## # ... with 508 more rows
